…
``` r
forecast_tbl_final

## A tibble: 84 × 5
#   .model_id .model_desc                   .key       .index       .value
#       <int> <chr>                         <fct>      <date>        <dbl>
# 1         1 ENSEMBLE (WEIGHTED): 6 MODELS prediction 2018-12-31 1651.   
# 2         1 ENSEMBLE (WEIGHTED): 6 MODELS prediction 2019-01-01   68.4  
# 3         1 ENSEMBLE (WEIGHTED): 6 MODELS prediction 2019-01-02  200.   
# 4         1 ENSEMBLE (WEIGHTED): 6 MODELS prediction 2019-01-03    0.992
# 5         1 ENSEMBLE (WEIGHTED): 6 MODELS prediction 2019-01-04  637.   
# 6         1 ENSEMBLE (WEIGHTED): 6 MODELS prediction 2019-01-05  846.   
# 7         1 ENSEMBLE (WEIGHTED): 6 MODELS prediction 2019-01-06 1030.   
# 8         1 ENSEMBLE (WEIGHTED): 6 MODELS prediction 2019-01-07 1030.   
# 9         1 ENSEMBLE (WEIGHTED): 6 MODELS prediction 2019-01-08 1153.   
#10         1 ENSEMBLE (WEIGHTED): 6 MODELS prediction 2019-01-09  183.   
# # … with 74 more rows
```
…
