…
Let’s borrow some tricks from [Julia Silge](https://juliasilge.com), the
OG of text-mining in R, to identify important words and then add dummy
variables for important words found in an observations `description`.

    austin_text <- 
      train_raw %>%
      mutate(priceRange = parse_number(priceRange) + 100000) %>% # make bin categories numeric so we can run glm
      unnest_tokens(word, description) %>% # Splits column into tokens, flattening table into one-token-per-row.
      anti_join(get_stopwords()) # Removes stop words

    austin_text %>%
      count(word, sort = TRUE)

    ## # A tibble: 17,944 × 2
    ##    word         n
    ##    <chr>    <int>
    ##  1 home     11620
    ##  2 kitchen   5721
    ##  3 room      5494
    ##  4 austin    4918
    ##  5 new       4772
    ##  6 large     4771
    ##  7 2         4585
    ##  8 bedrooms  4571
    ##  9 contains  4413
    ## 10 3         4386
    ## # … with 17,934 more rows
…
    word_freqs <- 
      austin_text %>%
      count(word, priceRange) %>%
      complete(word, priceRange, fill = list(n = 0)) %>%   # 0 instead of NA
      group_by(priceRange) %>%
      mutate(price_total = sum(n),
             proportion = n / price_total) %>%
      ungroup() %>%
      filter(word %in% top_words)

    word_freqs

    ## # A tibble: 500 × 5
    ##    word       priceRange     n price_total proportion
    ##    <chr>           <dbl> <dbl>       <dbl>      <dbl>
    ##  1 access         100000   180       56290    0.00320
    ##  2 access         350000   365      114853    0.00318
    ##  3 access         450000   322      116678    0.00276
    ##  4 access         550000   294      125585    0.00234
    ##  5 access         750000   248      112073    0.00221
    ##  6 appliances     100000   209       56290    0.00371
    ##  7 appliances     350000   583      114853    0.00508
    ##  8 appliances     450000   576      116678    0.00494
    ##  9 appliances     550000   567      125585    0.00451
    ## 10 appliances     750000   391      112073    0.00349
    ## # … with 490 more rows
…
    word_mods <-
      word_freqs %>%
      nest(data = c(priceRange, n, price_total, proportion)) %>%
      mutate(model = map(data, ~ glm(cbind(n, price_total) ~ priceRange, ., family = "binomial")),
             model = map(model, tidy)) %>%
      unnest(model) %>%
      filter(term == "priceRange") %>% # want slope and not intercept
      mutate(adj.pvalue = p.adjust(p.value)) %>%  # adjusting p-values for imbalanced words
      arrange(-estimate)

    word_mods

    ## # A tibble: 100 × 8
    ##    word     data     term    estimate std.error statistic  p.value
    ##    <chr>    <list>   <chr>      <dbl>     <dbl>     <dbl>    <dbl>
    ##  1 outdoor  <tibble… priceR…  3.25e-6   1.85e-7     17.6  4.41e-69
    ##  2 custom   <tibble… priceR…  2.14e-6   1.47e-7     14.6  4.14e-48
    ##  3 pool     <tibble… priceR…  1.59e-6   1.22e-7     13.0  6.52e-39
    ##  4 office   <tibble… priceR…  1.50e-6   1.46e-7     10.3  6.85e-25
    ##  5 suite    <tibble… priceR…  1.43e-6   1.39e-7     10.3  4.53e-25
    ##  6 gorgeous <tibble… priceR…  9.75e-7   1.62e-7      6.02 1.73e- 9
    ##  7 w        <tibble… priceR…  9.20e-7   9.05e-8     10.2  2.74e-24
    ##  8 windows  <tibble… priceR…  8.90e-7   1.28e-7      6.95 3.75e-12
    ##  9 private  <tibble… priceR…  8.89e-7   1.15e-7      7.70 1.35e-14
    ## 10 car      <tibble… priceR…  7.78e-7   1.66e-7      4.69 2.67e- 6
    ## # … with 90 more rows, and 1 more variable: adj.pvalue <dbl>
…
Look at `high_price_words` and `low_price_words` in the `$0-$250,000`
SHAP summary plot. Observations with `low_price_words` in the
`$0-$250,000` plot are always purple and positive, influencing XGBoost
to say YES, classify me as `$0-$250,000`. Observations with
`high_price_words` are purple and negative, saying NO, don’t classify me
as `$0-$250,000`. The opposite pattern is seen with high/low words in
the `$640,000` plot.

The color scale for `lotSizeSqft` is messed up due to outliers.

    austin_training %>% arrange(desc(lotSizeSqFt)) %>% head(n=50) %>% select(priceRange, lotSizeSqFt)

    ## # A tibble: 50 × 2
    ##    priceRange lotSizeSqFt
    ##    <fct>            <dbl>
    ##  1 4             8581320 
    ##  2 0             5967720 
    ##  3 3             5880600 
    ##  4 2             2988216 
    ##  5 0             2178000 
    ##  6 4             1003622.
    ##  7 2              871200 
    ##  8 4              702623.
    ##  9 0              411206.
    ## 10 0              225205.
    ## # … with 40 more rows
…
